…
Let’s start with a for loop

``` r
output = vector("list", length = 100)

for (i in 1:100) {
  
  output[[i]] = sim_mean_sd(samp_size = 30)
}

bind_rows(output)
```

    ## # A tibble: 100 x 2
    ##     mean    sd
    ##    <dbl> <dbl>
    ##  1  3.59  3.81
    ##  2  4.14  3.66
    ##  3  3.47  3.63
    ##  4  4.31  4.03
    ##  5  2.42  4.56
    ##  6  2.73  4.49
    ##  7  3.02  3.36
    ##  8  3.58  4.10
    ##  9  2.58  4.21
    ## 10  2.97  4.75
    ## # … with 90 more rows
…
